[
   {
      "results": [
         {
            "jobId": 35923882,
            "employerId": 198018,
            "employerName": "Judicial Review",
            "employerProfileId": "None",
            "employerProfileName": "None",
            "jobTitle": "FUND ACCOUNTANT - PRIVATE EQUITY",
            "locationName": "Guernsey",
            "minimumSalary": 50000,
            "maximumSalary": 60000,
            "currency": "GBP",
            "expirationDate": "02/04/2019",
            "date": "21/08/2018",
            "jobDescription": " *** FUND ACCOUNTANT - PRIVATE EQUITY - GUERNSEY - CHANNEL ISLANDS ***  THE COMPANY Major global financial institution based in Guernsey  Guernsey has a well-established legal system which has been enhanced over the years by the introduction of modern legislation covering all important aspects relating to the finance industry. This has resulted in Guernsey developing and maintaining a reputation  as a well-regulated and attracti... ",
            "applications": 5,
            "jobUrl": "https://www.reed.co.uk/jobs/fund-accountant-private-equity/35923882"
         },
         {
            "jobId": 37309471,
            "employerId": 198018,
            "employerName": "Judicial Review",
            "employerProfileId": "None",
            "employerProfileName": "None",
            "jobTitle": "SENIOR ASSOCIATE - CORPORATE M & A SOLICITOR - NEW ZEALAND",
            "locationName": "Auckland",
            "minimumSalary": 70000,
            "maximumSalary": 100000,
            "currency": "GBP",
            "expirationDate": "01/04/2019",
            "date": "18/02/2019",
            "jobDescription": " **SENIOR ASSOCIATE - CORPORATE M &amp; A SOLICITOR - NEW ZEALAND ***  THE PRACTICE Prominent Auckland boutique law firm  THE APPOINTMENT Corporate Associate Solicitor required for a Senior Associate appointment, specialising in M&amp;A transactions. Applications are invited form NEW ZEALAND qualified solicitors having significant experience in high quality corporate M &amp; A work. You will be admitted  to practice in Ne... ",
            "applications": 1,
            "jobUrl": "https://www.reed.co.uk/jobs/senior-associate-corporate-m-a-solicitor-new-zealand/37309471"
         },
         {
            "jobId": 36994683,
            "employerId": 198018,
            "employerName": "Judicial Review",
            "employerProfileId": "None",
            "employerProfileName": "None",
            "jobTitle": "Property Litigation Solicitor",
            "locationName": "Salisbury",
            "minimumSalary": 42000,
            "maximumSalary": 48000,
            "currency": "GBP",
            "expirationDate": "04/04/2019",
            "date": "10/01/2019",
            "jobDescription": " Property Litigation Solicitor- Salisbury   Our client based in Salisbury is one of the leading private client firms outside the City. They currently have an exciting opportunity for a 2yrs&#43; Property Litigation Solicitor to join a highly regarded team.  The Role  The successful candidate should have at least 2-5 years recent relevant experience gained within a high quality litigation team. The role will have an emphas... ",
            "applications": 0,
            "jobUrl": "https://www.reed.co.uk/jobs/property-litigation-solicitor/36994683"
         },
         {
            "jobId": 36723541,
            "employerId": 198018,
            "employerName": "Judicial Review",
            "employerProfileId": "None",
            "employerProfileName": "None",
            "jobTitle": "Commercial Property Solicitor",
            "locationName": "Sevenoaks",
            "minimumSalary": 50000,
            "maximumSalary": 55000,
            "currency": "GBP",
            "expirationDate": "03/04/2019",
            "date": "28/11/2018",
            "jobDescription": " Commercial Property Solicitor--Sevenoaks   Our client is a highly respected regional law firm with an excellent reputation as a full service law firm with a number of offices in the South East. They currently have a vacancy for a Commercial Property Solicitor with Landlord and Tenant and Enfranchisement  experience to join one of the leading law firms in Sussex and Kent..  The Role  As a result of winning additional busi... ",
            "applications": 1,
            "jobUrl": "https://www.reed.co.uk/jobs/commercial-property-solicitor/36723541"
         },
         {
            "jobId": 37273445,
            "employerId": 198018,
            "employerName": "Judicial Review",
            "employerProfileId": "None",
            "employerProfileName": "None",
            "jobTitle": "Employment Solicitor NQ-1 YrPQE",
            "locationName": "Knowle",
            "minimumSalary": 32000,
            "maximumSalary": 35000,
            "currency": "GBP",
            "expirationDate": "27/03/2019",
            "date": "13/02/2019",
            "jobDescription": " Employment Solicitor NQ-1 YrPQE  Our client is a private consultancy providing employment law / HR advice, plus consultancy and support services to numerous public and private sector organisations throughout the UK. The company is particularly strong in the education sector where it enjoys  an excellent reputation for quality work.  The Role.  Due to a period of expansion and restructuring, they are seeking to recruit a ... ",
            "applications": 1,
            "jobUrl": "https://www.reed.co.uk/jobs/employment-solicitor-nq-1-yrpqe/37273445"
         },
         {
            "jobId": 37273350,
            "employerId": 198018,
            "employerName": "Judicial Review",
            "employerProfileId": "None",
            "employerProfileName": "None",
            "jobTitle": "Employment Solicitor/ Barrister- In House",
            "locationName": "Knowle",
            "minimumSalary": 40000,
            "maximumSalary": 45000,
            "currency": "GBP",
            "expirationDate": "27/03/2019",
            "date": "13/02/2019",
            "jobDescription": " Employment Solicitor/ Barrister- In House - Hampshire.  Our client is a private consultancy providing employment law / HR advice, plus consultancy and support services to numerous public and private sector organisations throughout the UK. The company is particularly strong in the education sector where it enjoys  an excellent reputation for quality work.  The Role.  Due to a period of expansion and restructuring, they ar... ",
            "applications": 0,
            "jobUrl": "https://www.reed.co.uk/jobs/employment-solicitor-barrister-in-house/37273350"
         }
      ],
      "ambiguousLocations": [],
      "totalResults": 6
   },
   {
      "results": [
         {
            "jobId": 37441930,
            "employerId": 198066,
            "employerName": "Lloyd Barnes Accountancy Recruitment",
            "employerProfileId": "None",
            "employerProfileName": "None",
            "jobTitle": "Finance Manager",
            "locationName": "Brixham",
            "minimumSalary": 35000,
            "maximumSalary": 45000,
            "currency": "GBP",
            "expirationDate": "17/04/2019",
            "date": "06/03/2019",
            "jobDescription": " My client is an exciting and diverse international business services company. Reporting to the UK FD, you will be responsible for a small but dedicated finance team. The business has major growth plans, so this position is ideally suited to a proactive &amp; driven individual who wants to make a real difference to the business. This a perfect opportunity to join a robust organisation that can afford the successful applicant str... ",
            "applications": 0,
            "jobUrl": "https://www.reed.co.uk/jobs/finance-manager/37441930"
         },
         {
            "jobId": 37434375,
            "employerId": 198066,
            "employerName": "Lloyd Barnes Accountancy Recruitment",
            "employerProfileId": "None",
            "employerProfileName": "None",
            "jobTitle": "Finance Manager - Systems & Projects",
            "locationName": "Exeter",
            "minimumSalary": 35000,
            "maximumSalary": 40000,
            "currency": "GBP",
            "expirationDate": "16/04/2019",
            "date": "05/03/2019",
            "jobDescription": " My client is an important local employer, who are looking to recruit an experienced Finance Manager for their Exeter based company. As a key member of the business, you will lead your own team, managing and developing them to support the wider finance function. The ideal candidate will have strong IT skills, preferably with previous ERP experience gained in a medium to large sized organisation. In addition, you will be familiar with c... ",
            "applications": 0,
            "jobUrl": "https://www.reed.co.uk/jobs/finance-manager-systems-projects/37434375"
         },
         {
            "jobId": 37468493,
            "employerId": 198066,
            "employerName": "Lloyd Barnes Accountancy Recruitment",
            "employerProfileId": "None",
            "employerProfileName": "None",
            "jobTitle": "Management Accountant",
            "locationName": "Devon",
            "minimumSalary": 35000,
            "maximumSalary": 40000,
            "currency": "GBP",
            "expirationDate": "19/04/2019",
            "date": "08/03/2019",
            "jobDescription": " Our client based in the Torbay area are looking to appoint an experienced Management Accountant, reporting directly into the Finance &amp; Operations Director. The successful candidate will be responsible for the running of the finance function, along with reporting into the overseas parent company. Duties:  Maintaining and managing a robust cashflowMonthly management reporting into group<\/... ",
            "applications": 0,
            "jobUrl": "https://www.reed.co.uk/jobs/management-accountant/37468493"
         },
         {
            "jobId": 37237208,
            "employerId": 198066,
            "employerName": "Lloyd Barnes Accountancy Recruitment",
            "employerProfileId": "None",
            "employerProfileName": "None",
            "jobTitle": "Corporate Tax Manager",
            "locationName": "Exeter",
            "minimumSalary": "None",
            "maximumSalary": "None",
            "currency": "None",
            "expirationDate": "22/03/2019",
            "date": "08/02/2019",
            "jobDescription": " I currently have a fantastic opportunity for an experienced Corporate Tax professional to join one of the South West's leading employers. CTA qualified you will already be a Corporate Tax Manager or seeking the next step from Executive in your career. As well as managing a portfolio of clients, you will oversee a solid tax compliance service and will support the partners with advisory and special project work. This is an outsta... ",
            "applications": 1,
            "jobUrl": "https://www.reed.co.uk/jobs/corporate-tax-manager/37237208"
         },
         {
            "jobId": 37405282,
            "employerId": 198066,
            "employerName": "Lloyd Barnes Accountancy Recruitment",
            "employerProfileId": "None",
            "employerProfileName": "None",
            "jobTitle": "Finance Manager",
            "locationName": "Plymouth",
            "minimumSalary": 30000,
            "maximumSalary": 40000,
            "currency": "GBP",
            "expirationDate": "12/04/2019",
            "date": "01/03/2019",
            "jobDescription": " Our Client, a growing Organisation based in Plymouth is a seeking to appoint an experienced and proactive Finance Manager, reporting to the Finance Director, contributing directly to the overall operation of financial systems and the strategic development  of the finance function. Duties:  Produce annual financial statements, prepare audit files and liaise with external and internal auditors.Budge... ",
            "applications": 2,
            "jobUrl": "https://www.reed.co.uk/jobs/finance-manager/37405282"
         },
         {
            "jobId": 37468620,
            "employerId": 198066,
            "employerName": "Lloyd Barnes Accountancy Recruitment",
            "employerProfileId": "None",
            "employerProfileName": "None",
            "jobTitle": "Accounts Senior",
            "locationName": "Newton Abbot",
            "minimumSalary": 25000,
            "maximumSalary": 32000,
            "currency": "GBP",
            "expirationDate": "19/04/2019",
            "date": "08/03/2019",
            "jobDescription": " Accounts Senior Torbay/Newton Abbot Ref: 13144 This is an excellent opportunity for an enthusiastic Accounts Senior to join an award-winning local accountancy firm who are ambitious and keen to build on their recent substantial growth. You will need to have proven experience of working within an accountancy practice, as you will need to provide a wide range of acc... ",
            "applications": 0,
            "jobUrl": "https://www.reed.co.uk/jobs/accounts-senior/37468620"
         },
         {
            "jobId": 37299516,
            "employerId": 198066,
            "employerName": "Lloyd Barnes Accountancy Recruitment",
            "employerProfileId": "None",
            "employerProfileName": "None",
            "jobTitle": "Finance Administrator",
            "locationName": "Exeter",
            "minimumSalary": 20000,
            "maximumSalary": 23000,
            "currency": "GBP",
            "expirationDate": "29/03/2019",
            "date": "15/02/2019",
            "jobDescription": " Finance Administrator Exeter &#163;20-23k Ref: 13325 My client, a thriving and rapidly expanding family-run business, are seeking to recruit an experienced Finance Administrator to join them at their modern Head Office based in Exeter. This is an excellent opportunity for a Finance Administrator who is looking to join a very social and interactive team and operate in a fast-paced and vibrant environment. Re... ",
            "applications": 10,
            "jobUrl": "https://www.reed.co.uk/jobs/finance-administrator/37299516"
         },
         {
            "jobId": 37287034,
            "employerId": 198066,
            "employerName": "Lloyd Barnes Accountancy Recruitment",
            "employerProfileId": "None",
            "employerProfileName": "None",
            "jobTitle": "Assistant Audit Manager",
            "locationName": "Plymouth",
            "minimumSalary": 33000,
            "maximumSalary": 40000,
            "currency": "GBP",
            "expirationDate": "28/03/2019",
            "date": "14/02/2019",
            "jobDescription": " Our client is looking to recruit an Assistant Audit Manager based in Plymouth, Devon. The Role As an Assistant manager you will work with a wide range of clients within a cross functional office. The client base is from a number of business sectors, ranging in size from owner-managed businesses to multi-national organisations. The Responsibilities  Planning and project managi... ",
            "applications": 2,
            "jobUrl": "https://www.reed.co.uk/jobs/assistant-audit-manager/37287034"
         }
      ],
      "ambiguousLocations": [],
      "totalResults": 8
   },
   {
      "results": [
         {
            "jobId": 37398406,
            "employerId": 202014,
            "employerName": "Mills & Reeve",
            "employerProfileId": "None",
            "employerProfileName": "None",
            "jobTitle": " Facilities Assistant",
            "locationName": "Manchester",
            "minimumSalary": "None",
            "maximumSalary": "None",
            "currency": "None",
            "expirationDate": "11/04/2019",
            "date": "28/02/2019",
            "jobDescription": " Full time, 12 Month Fixed Term What does the role involve?This role is responsible for providing a comprehensive facilities service in the firm's busy Manchester office. You will be working as part of a team, reporting to the Assistant Facilities Manager. You will be responsible for but not limited to: - Ensure all internal and external post is dealt with efficiently andeffec... ",
            "applications": 6,
            "jobUrl": "https://www.reed.co.uk/jobs/facilities-assistant/37398406"
         },
         {
            "jobId": 37329668,
            "employerId": 202014,
            "employerName": "Mills & Reeve",
            "employerProfileId": "None",
            "employerProfileName": "None",
            "jobTitle": "Knowledge Management Administrator",
            "locationName": "Cambridge",
            "minimumSalary": 18000,
            "maximumSalary": 20000,
            "currency": "GBP",
            "expirationDate": "03/04/2019",
            "date": "20/02/2019",
            "jobDescription": " Entry level rolePermanent, Full Time The roleThis role will support the knowledge learning and development team in the administration of knowledge systems and project management. This is an entry level role giving you opportunities, at the right time, to manage projects of your own and to progress in  the role. You will be trained in the use of Mills &amp... ",
            "applications": 2,
            "jobUrl": "https://www.reed.co.uk/jobs/knowledge-management-administrator/37329668"
         }
      ],
      "ambiguousLocations": [],
      "totalResults": 2
   }
]
