[
  "system",
  "environment",
  "end",
  "desktop",
  "application",
  "issue",
  "network",
  "configuration",
  "computer",
  "infrastructure",
  "hardware",
  "site",
  "operation",
  "technology",
  "software",
  "problem",
  "equipment",
  "documentation",
  "information",
  "level",
  "management",
  "support",
  "user",
  "team",
  "staff",
  "server",
  "day",
  "service",
  "administration",
  "maintenance",
  "expectation",
  "real",
  "practice",
  "meet",
  "customer",
  "commitment",
  "base",
  "hire",
  "drive",
  "leader",
  "version",
  "way",
  "term",
  "satisfaction",
  "order",
  "site",
  "face",
  "challenge",
  "business",
  "class",
  "plan",
  "team",
  "service",
  "solution",
  "course",
  "long",
  "account",
  "relationship",
  "difference",
  "success",
  "monitoring",
  "scripting",
  "knowledge",
  "platform",
  "infrastructure",
  "strong",
  "understanding",
  "performance",
  "tool",
  "production",
  "security",
  "automation",
  "deployment",
  "technology",
  "global",
  "environment",
  "service",
  "configuration",
  "scale",
  "position",
  "engineering",
  "operation",
  "cloud",
  "management",
  "good",
  "large",
  "skill",
  "team",
  "system",
  "responsible",
  "solution",
  "developer",
  "application",
  "support",
  "enterprise",
  "standard",
  "knowledge",
  "technical",
  "tool",
  "data",
  "design",
  "performance",
  "datum",
  "business",
  "integration",
  "environment",
  "analysis",
  "responsible",
  "specification",
  "database",
  "implementation",
  "skill",
  "information",
  "system",
  "development",
  "complex",
  "maintenance",
  "etl",
  "project",
  "user",
  "global",
  "value",
  "e",
  "research",
  "online",
  "partner",
  "credit",
  "processing",
  "service",
  "world",
  "part",
  "commerce",
  "international",
  "flexible",
  "technology",
  "consumer",
  "time",
  "irish",
  "area",
  "check",
  "employee",
  "cash",
  "card",
  "chain",
  "top",
  "day",
  "bank",
  "payment",
  "institution",
  "market",
  "gender",
  "inclusive",
  "qualified",
  "origin",
  "orientation",
  "consideration",
  "diverse",
  "employer",
  "national",
  "applicant",
  "workforce",
  "candidate",
  "what",
  "culture",
  "religion",
  "organisation",
  "development",
  "successful",
  "different",
  "race",
  "service",
  "environment",
  "customer",
  "discussion",
  "sexual",
  "equal",
  "part",
  "essential",
  "disability",
  "age",
  "optimal",
  "pound",
  "cv",
  "hot",
  "tuning",
  "scheduling",
  "algorithm",
  "various",
  "hat",
  "table",
  "function",
  "olap",
  "view",
  "debugging",
  "index",
  "different",
  "break",
  "warehouse",
  "indexing",
  "requiredexperience",
  "ssrs",
  "version",
  "grad",
  "incorporate",
  "object",
  "phase",
  "power",
  "constraint",
  "coe",
  "whatev",
  "team",
  "complex",
  "design",
  "technology",
  "good",
  "major",
  "customer",
  "global",
  "architecture",
  "implementation",
  "enterprise",
  "environment",
  "scale",
  "integration",
  "country",
  "delivery",
  "project",
  "large",
  "capability",
  "knowledge",
  "support",
  "solution",
  "level",
  "business",
  "service",
  "technical",
  "application",
  "consumer",
  "key",
  "infrastructure",
  "manager",
  "management",
  "product",
  "relevant",
  "vision",
  "industry",
  "owner",
  "learning",
  "functional",
  "stakeholder",
  "roadmap",
  "market",
  "customer",
  "expert",
  "internal",
  "communication",
  "engineering",
  "environment",
  "external",
  "technology",
  "team",
  "gaming",
  "innovation",
  "development",
  "global",
  "software",
  "technical",
  "goal",
  "area",
  "feature",
  "high",
  "knowledge",
  "communication",
  "candidate",
  "ability",
  "individual",
  "analytical",
  "skill",
  "degree",
  "problem",
  "environment",
  "documentation",
  "complex",
  "good",
  "detail",
  "strong",
  "multiple",
  "verbal",
  "team",
  "able",
  "initiative",
  "support",
  "solution",
  "self",
  "level",
  "time",
  "customer",
  "task",
  "technical",
  "part"
]